…
``` r
apisrs_slim <- apisrs %>%
  as_tibble() %>%
  arrange(dnum, snum) %>%
  select(cds, dnum, snum, dname, sname, fpc, pw)
apisrs_slim
```

    # A tibble: 200 × 7
       cds             dnum  snum dname                   sname            fpc    pw
       <chr>          <int> <dbl> <chr>                   <chr>          <dbl> <dbl>
     1 19642126061220     1  1121 ABC Unified             Haskell (Plin…  6194  31.0
     2 19642126066716     1  1124 ABC Unified             Stowers (Ceci…  6194  31.0
     3 36675876035174     5  3895 Adelanto Elementary     Adelanto Elem…  6194  31.0
     4 33669776031512    19  3347 Alvord Unified          Arlanza Eleme…  6194  31.0
     5 33669776031595    19  3352 Alvord Unified          Wells Interme…  6194  31.0
     6 31667876031033    39  3271 Auburn Union Elementary Cain (E.V.) M…  6194  31.0
     7 19642876011407    42  1169 Baldwin Park Unified    Deanza Elemen…  6194  31.0
     8 19642876011464    42  1175 Baldwin Park Unified    Heath (Margar…  6194  31.0
     9 19642956011589    48  1187 Bassett Unified         Erwin (Thomas…  6194  31.0
    10 41688586043392    49  4948 Bayshore Elementary     Bayshore Elem…  6194  31.0
    # ℹ 190 more rows
…
``` r
apiclus2_slim <- apiclus2 %>%
  as_tibble() %>%
  arrange(desc(dnum), snum) %>%
  select(cds, dnum, snum, fpc1, fpc2, pw)
apiclus2_slim
```

    # A tibble: 126 × 6
       cds             dnum  snum  fpc1      fpc2    pw
       <chr>          <int> <dbl> <dbl> <int[1d]> <dbl>
     1 47704826050942   795  5552   757         1  18.9
     2 07618126005169   781   530   757         6  22.7
     3 07618126005177   781   531   757         6  22.7
     4 07618126005185   781   532   757         6  22.7
     5 07618126005193   781   533   757         6  22.7
     6 07618126005243   781   535   757         6  22.7
     7 19650786023337   768  2371   757         2  18.9
     8 19650786023345   768  2372   757         2  18.9
     9 54722076054423   742  5898   757         1  18.9
    10 50712906053086   731  5781   757         9  34.1
    # ℹ 116 more rows
…
bwmata <- apibw$repweights$weights[apibw$repweights$index, ] * apiclus1_slim$pw

apiclus1_slim <- bwmata %>%
  as.data.frame() %>%
  set_names(str_c("pw", 1:50)) %>%
  cbind(apiclus1_slim) %>%
  as_tibble() %>%
  select(cds, dnum, fpc, pw, everything())

apiclus1_slim
```

    # A tibble: 183 × 54
       cds    dnum   fpc    pw   pw1   pw2   pw3   pw4   pw5   pw6   pw7   pw8   pw9
       <chr> <int> <dbl> <dbl> <dbl> <dbl> <dbl> <dbl> <dbl> <dbl> <dbl> <dbl> <dbl>
     1 4369…    61   757  33.8  33.8     0     0  33.8     0  33.8     0  67.7     0
     2 4369…    61   757  33.8  33.8     0     0  33.8     0  33.8     0  67.7     0
     3 4369…    61   757  33.8  33.8     0     0  33.8     0  33.8     0  67.7     0
     4 4369…    61   757  33.8  33.8     0     0  33.8     0  33.8     0  67.7     0
     5 4369…    61   757  33.8  33.8     0     0  33.8     0  33.8     0  67.7     0
     6 4369…    61   757  33.8  33.8     0     0  33.8     0  33.8     0  67.7     0
     7 4369…    61   757  33.8  33.8     0     0  33.8     0  33.8     0  67.7     0
     8 4369…    61   757  33.8  33.8     0     0  33.8     0  33.8     0  67.7     0
     9 4369…    61   757  33.8  33.8     0     0  33.8     0  33.8     0  67.7     0
    10 4369…    61   757  33.8  33.8     0     0  33.8     0  33.8     0  67.7     0
    # ℹ 173 more rows
    # ℹ 41 more variables: pw10 <dbl>, pw11 <dbl>, pw12 <dbl>, pw13 <dbl>,
    #   pw14 <dbl>, pw15 <dbl>, pw16 <dbl>, pw17 <dbl>, pw18 <dbl>, pw19 <dbl>,
    #   pw20 <dbl>, pw21 <dbl>, pw22 <dbl>, pw23 <dbl>, pw24 <dbl>, pw25 <dbl>,
    #   pw26 <dbl>, pw27 <dbl>, pw28 <dbl>, pw29 <dbl>, pw30 <dbl>, pw31 <dbl>,
    #   pw32 <dbl>, pw33 <dbl>, pw34 <dbl>, pw35 <dbl>, pw36 <dbl>, pw37 <dbl>,
    #   pw38 <dbl>, pw39 <dbl>, pw40 <dbl>, pw41 <dbl>, pw42 <dbl>, pw43 <dbl>, …
…
