…
``` r
fit_stats <- augment(m_electric_multi) %>%
  mutate(
    .se.fit = sqrt(attr(.fitted, "var")),
    .fitted = as.numeric(.fitted)
  )
fit_stats
```

    # A tibble: 18,496 × 13
       DOLLAREL Region    Urbanicity    TOTSQFT_EN ACUsed `(weights)` .fitted .resid
          <dbl> <fct>     <fct>              <dbl> <lgl>        <dbl>   <dbl>  <dbl>
     1    1955. West      Urban Area          2100 TRUE         0.492   1397.  391. 
     2     713. South     Urban Area           590 TRUE         1.35    1090. -437. 
     3     335. West      Urban Area           900 TRUE         0.849   1043. -653. 
     4    1425. South     Urban Area          2100 TRUE         0.793   1584. -141. 
     5    1087  Northeast Urban Area           800 TRUE         1.49    1055.   38.9
     6    1896. South     Urban Area          4520 TRUE         1.09    2375. -500. 
     7    1418. South     Urban Area          2100 TRUE         0.851   1584. -153. 
     8    1237. South     Urban Cluster        900 FALSE        1.45    1349. -135. 
     9     538. South     Urban Area           750 TRUE         0.185   1142. -260. 
    10     625. West      Urban Area           760 TRUE         1.06    1002. -388. 
    # ℹ 18,486 more rows
    # ℹ 5 more variables: .hat <dbl>, .sigma <dbl>, .cooksd <dbl>,
    #   .std.resid <dbl>, .se.fit <dbl>
…
logistic_trust_vote %>%
  augment(type.predict = "response") %>%
  mutate(
    .se.fit = sqrt(attr(.fitted, "var")),
    .fitted = as.numeric(.fitted)
  ) %>%
  select(
    TrustGovernmentUsually,
    VotedPres2020_selection,
    .fitted,
    .se.fit
  )
```

    # A tibble: 6,212 × 4
       TrustGovernmentUsually VotedPres2020_selection .fitted .se.fit
       <lgl>                  <fct>                     <dbl>   <dbl>
     1 FALSE                  Other                    0.0681 0.0279 
     2 FALSE                  Biden                    0.123  0.00772
     3 FALSE                  Biden                    0.123  0.00772
     4 FALSE                  Trump                    0.178  0.00919
     5 FALSE                  Biden                    0.123  0.00772
     6 FALSE                  Trump                    0.178  0.00919
     7 FALSE                  Biden                    0.123  0.00772
     8 FALSE                  Biden                    0.123  0.00772
     9 TRUE                   Biden                    0.123  0.00772
    10 FALSE                  Biden                    0.123  0.00772
    # ℹ 6,202 more rows
…
